<svg width="458" height="665" viewBox="0 0 458 665" fill="none" xmlns="http://www.w3.org/2000/svg">
<path d="M198.5 628.5C145 649.651 51.8333 665.5 0 664V0H454.5L458 582.5C381 570.5 284.5 594.5 198.5 628.5Z" fill="#E7FBFC"/>
</svg>
